2211.21 2188.48
2203.18 2180.94
2203.99 2181.55
2187.13 2165.01
2176.28 2154.15   
2170.58 2148.65
2161.99 2140.19
2153.40 2131.73
2144.81 2123.27
2136.22 2114.81
2127.63 2106.35
2119.04 2097.89
2110.45 2089.43
2101.86 2080.97
2093.27 2072.51
2084.68 2064.05
2076.09 2055.59
2067.50 2047.13
2058.91 2038.67
2050.32 2030.21